<?xml version="1.0" encoding="utf-8"?>
<!-- Generator: Adobe Illustrator 16.0.0, SVG Export Plug-In . SVG Version: 6.00 Build 0)  -->
<!DOCTYPE svg PUBLIC "-//W3C//DTD SVG 1.1//EN" "http://www.w3.org/Graphics/SVG/1.1/DTD/svg11.dtd">
<svg version="1.1" id="Calque_1" xmlns="http://www.w3.org/2000/svg" xmlns:xlink="http://www.w3.org/1999/xlink" x="0px" y="0px"
	 width="6.981px" height="15.99px" viewBox="0 0 6.981 15.99" enable-background="new 0 0 6.981 15.99" xml:space="preserve">
<path fill="#4bb1c0" d="M6.708,7.999H4.604c0,3.581,0,7.991,0,7.991H1.483c0,0,0-4.365,0-7.991H0v-2.82h1.483V3.351
	C1.483,2.042,2.067,0,4.632,0l2.311,0.01v2.74c0,0-1.404,0-1.678,0s-0.66,0.146-0.66,0.767v1.662h2.377L6.708,7.999z"/>
</svg>
